{
  "project_info": {
    "project_number": "595207164559",
    "firebase_url": "https://ecomme-c0e32.firebaseio.com",
    "project_id": "ecomme-c0e32",
    "storage_bucket": "ecomme-c0e32.appspot.com"
  },
  "client": [
    {
      "client_info": {
        "mobilesdk_app_id": "1:595207164559:android:f87e2c2a587b5604",
        "android_client_info": {
          "package_name": "com.example.taylorherald.studio3"
        }
      },
      "oauth_client": [
        {
          "client_id": "595207164559-fkthssmivirldsdb5cqk8ruh0jiqm42t.apps.googleusercontent.com",
          "client_type": 1,
          "android_info": {
            "package_name": "com.example.taylorherald.studio3",
            "certificate_hash": "c8ae6efb7fa42ae91617f2e75d282b13e7aaded3"
          }
        },
        {
          "client_id": "595207164559-0ek5k269ivroknr4670ho9jl7ecog9sd.apps.googleusercontent.com",
          "client_type": 3
        }
      ],
      "api_key": [
        {
          "current_key": "AIzaSyCkgZG3ciiIHFWLagp-wMtzBCMtl_J6fn4"
        }
      ],
      "services": {
        "analytics_service": {
          "status": 1
        },
        "appinvite_service": {
          "status": 2,
          "other_platform_oauth_client": [
            {
              "client_id": "595207164559-0ek5k269ivroknr4670ho9jl7ecog9sd.apps.googleusercontent.com",
              "client_type": 3
            }
          ]
        },
        "ads_service": {
          "status": 2
        }
      }
    },
    {
      "client_info": {
        "mobilesdk_app_id": "1:595207164559:android:f8a7760f36f710c7",
        "android_client_info": {
          "package_name": "com.example.taylorherald.studio4"
        }
      },
      "oauth_client": [
        {
          "client_id": "595207164559-rid9s00ccgolbumjsibbjk3enp2fv5c6.apps.googleusercontent.com",
          "client_type": 1,
          "android_info": {
            "package_name": "com.example.taylorherald.studio4",
            "certificate_hash": "c8ae6efb7fa42ae91617f2e75d282b13e7aaded3"
          }
        },
        {
          "client_id": "595207164559-0ek5k269ivroknr4670ho9jl7ecog9sd.apps.googleusercontent.com",
          "client_type": 3
        }
      ],
      "api_key": [
        {
          "current_key": "AIzaSyCkgZG3ciiIHFWLagp-wMtzBCMtl_J6fn4"
        }
      ],
      "services": {
        "analytics_service": {
          "status": 1
        },
        "appinvite_service": {
          "status": 2,
          "other_platform_oauth_client": [
            {
              "client_id": "595207164559-0ek5k269ivroknr4670ho9jl7ecog9sd.apps.googleusercontent.com",
              "client_type": 3
            }
          ]
        },
        "ads_service": {
          "status": 2
        }
      }
    },
    {
      "client_info": {
        "mobilesdk_app_id": "1:595207164559:android:0321cb14ec1fee10",
        "android_client_info": {
          "package_name": "com.example.taylorherald.studio6"
        }
      },
      "oauth_client": [
        {
          "client_id": "595207164559-21b2qs4m1ni10g0i2kkgton6516273tv.apps.googleusercontent.com",
          "client_type": 1,
          "android_info": {
            "package_name": "com.example.taylorherald.studio6",
            "certificate_hash": "c8ae6efb7fa42ae91617f2e75d282b13e7aaded3"
          }
        },
        {
          "client_id": "595207164559-0ek5k269ivroknr4670ho9jl7ecog9sd.apps.googleusercontent.com",
          "client_type": 3
        }
      ],
      "api_key": [
        {
          "current_key": "AIzaSyCkgZG3ciiIHFWLagp-wMtzBCMtl_J6fn4"
        }
      ],
      "services": {
        "analytics_service": {
          "status": 1
        },
        "appinvite_service": {
          "status": 2,
          "other_platform_oauth_client": [
            {
              "client_id": "595207164559-0ek5k269ivroknr4670ho9jl7ecog9sd.apps.googleusercontent.com",
              "client_type": 3
            }
          ]
        },
        "ads_service": {
          "status": 2
        }
      }
    }
  ],
  "configuration_version": "1"
}